…
## 2. Ten-minute discovery checklist

Start every WWDH session by listing collections and their advertised
query types.

``` r
library(edr4r)

wwdh <- edr_client("https://api.wwdh.internetofwater.app")

collections <- edr_collections(wwdh)
collections[, c("id", "title", "data_queries")]
#> # A tibble: 35 x 3
#>    id                 title                                  data_queries
#>    <chr>              <chr>                                  <list>
#>  1 rise-edr           USBR Reclamation Information Sharing... <chr [4]>
#>  2 snotel-edr         USDA Snowpack Telemetry Network ...     <chr [4]>
#>  3 awdb-forecasts-edr USDA Air and Water Database Forecasts   <chr [4]>
#>  4 snotel-huc06-means USDA Snotel Snow Water Equivalent ...   <NULL>
#>  5 usace-edr          USACE Access2Water API                  <chr [4]>
#>  6 noaa-qpf-day-1     NOAA Weather Prediction Center ...      <NULL>
#>  7 noaa-qpf-day-2     NOAA Weather Prediction Center ...      <NULL>
#>  8 noaa-qpf-day-3     NOAA Weather Prediction Center ...      <NULL>
#>  9 noaa-qpf-day-4-5   NOAA Weather Prediction Center ...      <NULL>
#> 10 noaa-qpf-day-6-7   NOAA Weather Prediction Center ...      <NULL>
#> # i 25 more rows
```
…
``` r
co_front_range <- c(-107, 37, -105, 40)

snotel_sites <- edr_locations(
  wwdh, "snotel-edr",
  bbox  = co_front_range,
  limit = 5
)

nrow(snotel_sites)
#> [1] 51

snotel_sites[, c("stationTriplet", "name", "stateCode", "networkCode")]
#> Simple feature collection with 51 features and 4 fields
#> # A tibble: 51 x 5
#>   stationTriplet name              stateCode networkCode geometry
#>   <chr>          <chr>             <chr>     <chr>       <POINT [deg]>
#> 1 303:CO:SNTL    Apishapa          CO        SNTL        ...
#> 2 1041:CO:SNTL   Beaver Ck Village CO        SNTL        ...
#> 3 335:CO:SNTL    Berthoud Summit   CO        SNTL        ...
#> # i 48 more rows
```
…
Use `edr_cube()` when you want a small grid:

``` r
prism_grid <- edr_cube(
  wwdh, "usgs-prism",
  bbox           = c(-112.6, 36.7, -112.2, 37.1),
  datetime       = "2023-01-01/2023-02-28",
  parameter_name = c("ppt", "tmx")
)

grid_tbl <- covjson_to_tibble(prism_grid)
grid_tbl[, c("parameter", "datetime", "x", "y", "value")]
#> # A tibble: 324 x 5
#>   parameter datetime                x     y value
#>   <chr>     <dttm>              <dbl> <dbl> <dbl>
#> 1 ppt       2023-01-01 00:00:00 -113.  37.1  116.
#> 2 ppt       2023-01-01 00:00:00 -113.  37.1  120.
#> 3 ppt       2023-01-01 00:00:00 -112.  37.1  131.
#> # i 321 more rows
…
